{
    "photos": {
        "page": 1,
        "pages": 20589,
        "perpage": 10,
        "total": "205886",
        "photo": [
            {
                "id": "31684216247",
                "owner": "46264600@N00",
                "secret": "2d4e534c7f",
                "server": "7848",
                "farm": 8,
                "title": "title1",
                "ispublic": 1,
                "isfriend": 0,
                "isfamily": 0,
                "license": "0",
                "description": {
                    "_content": "desc1"
                },
                "dateupload": "1546753352",
                "lastupdate": "1546753353",
                "datetaken": "2019-01-06 14:42:32",
                "datetakengranularity": 0,
                "datetakenunknown": "1",
                "ownername": "OTSUKA Makoto",
                "iconserver": "1503",
                "iconfarm": 2,
                "views": "0",
                "tags": "ifttt instagram",
                "machine_tags": "",
                "latitude": 0,
                "longitude": 0,
                "accuracy": 0,
                "context": 0,
                "media": "photo",
                "media_status": "ready",
                "url_sq": "https:\/\/farm8.staticflickr.com\/7848\/31684216247_2d4e534c7f_s.jpg",
                "height_sq": 75,
                "width_sq": 75,
                "url_t": "https:\/\/farm8.staticflickr.com\/7848\/31684216247_2d4e534c7f_t.jpg",
                "height_t": "100",
                "width_t": "100",
                "url_s": "https:\/\/farm8.staticflickr.com\/7848\/31684216247_2d4e534c7f_m.jpg",
                "height_s": "240",
                "width_s": "240",
                "url_q": "https:\/\/farm8.staticflickr.com\/7848\/31684216247_2d4e534c7f_q.jpg",
                "height_q": "150",
                "width_q": "150",
                "url_m": "https:\/\/farm8.staticflickr.com\/7848\/31684216247_2d4e534c7f.jpg",
                "height_m": "500",
                "width_m": "500",
                "url_n": "https:\/\/farm8.staticflickr.com\/7848\/31684216247_2d4e534c7f_n.jpg",
                "height_n": 320,
                "width_n": "320",
                "url_o": "https:\/\/farm8.staticflickr.com\/7848\/31684216247_2d4e534c7f_z.jpg",
                "height_o": "640",
                "width_o": "640",
                "pathalias": "kotowo"
            },
            {
                "id": "46573129122",
                "owner": "167215058@N03",
                "secret": "38b784699c",
                "server": "4834",
                "farm": 5,
                "title": "title2",
                "ispublic": 1,
                "isfriend": 0,
                "isfamily": 0,
                "license": "0",
                "description": {
                    "_content": "desc2"
                },
                "dateupload": "1546753246",
                "lastupdate": "1546753247",
                "datetaken": "2019-01-05 21:40:46",
                "datetakengranularity": 0,
                "datetakenunknown": "1",
                "ownername": "nhacloi",
                "iconserver": "0",
                "iconfarm": 0,
                "views": "0",
                "tags": "",
                "machine_tags": "",
                "originalsecret": "864c59a190",
                "originalformat": "jpg",
                "latitude": 0,
                "longitude": 0,
                "accuracy": 0,
                "context": 0,
                "media": "photo",
                "media_status": "ready",
                "url_sq": "https:\/\/farm5.staticflickr.com\/4834\/46573129122_38b784699c_s.jpg",
                "height_sq": 75,
                "width_sq": 75,
                "url_t": "https:\/\/farm5.staticflickr.com\/4834\/46573129122_38b784699c_t.jpg",
                "height_t": "65",
                "width_t": "100",
                "url_s": "https:\/\/farm5.staticflickr.com\/4834\/46573129122_38b784699c_m.jpg",
                "height_s": "155",
                "width_s": "240",
                "url_q": "https:\/\/farm5.staticflickr.com\/4834\/46573129122_38b784699c_q.jpg",
                "height_q": "150",
                "width_q": "150",
                "url_m": "https:\/\/farm5.staticflickr.com\/4834\/46573129122_38b784699c.jpg",
                "height_m": "323",
                "width_m": "500",
                "url_n": "https:\/\/farm5.staticflickr.com\/4834\/46573129122_38b784699c_n.jpg",
                "height_n": 207,
                "width_n": "320",
                "url_z": "https:\/\/farm5.staticflickr.com\/4834\/46573129122_38b784699c_z.jpg",
                "height_z": "413",
                "width_z": "640",
                "url_c": "https:\/\/farm5.staticflickr.com\/4834\/46573129122_38b784699c_c.jpg",
                "height_c": 516,
                "width_c": "800",
                "url_l": "https:\/\/farm5.staticflickr.com\/4834\/46573129122_38b784699c_b.jpg",
                "height_l": "661",
                "width_l": "1024",
                "url_o": "https:\/\/farm5.staticflickr.com\/4834\/46573129122_864c59a190_o.jpg",
                "height_o": "826",
                "width_o": "1280",
                "pathalias": null
            },
            {
                "id": "46573125402",
                "owner": "163073841@N05",
                "secret": "ba1aa5dbab",
                "server": "7915",
                "farm": 8,
                "title": "title3",
                "ispublic": 1,
                "isfriend": 0,
                "isfamily": 0,
                "license": "0",
                "description": {
                    "_content": "desc3"
                },
                "dateupload": "1546753231",
                "lastupdate": "1546753232",
                "datetaken": "2019-01-05 21:40:31",
                "datetakengranularity": 0,
                "datetakenunknown": "1",
                "ownername": "ankervn",
                "iconserver": "0",
                "iconfarm": 0,
                "views": "0",
                "tags": "",
                "machine_tags": "",
                "originalsecret": "a91a08857c",
                "originalformat": "jpg",
                "latitude": 0,
                "longitude": 0,
                "accuracy": 0,
                "context": 0,
                "media": "photo",
                "media_status": "ready",
                "url_sq": "https:\/\/farm8.staticflickr.com\/7915\/46573125402_ba1aa5dbab_s.jpg",
                "height_sq": 75,
                "width_sq": 75,
                "url_t": "https:\/\/farm8.staticflickr.com\/7915\/46573125402_ba1aa5dbab_t.jpg",
                "height_t": "100",
                "width_t": "100",
                "url_s": "https:\/\/farm8.staticflickr.com\/7915\/46573125402_ba1aa5dbab_m.jpg",
                "height_s": "240",
                "width_s": "240",
                "url_q": "https:\/\/farm8.staticflickr.com\/7915\/46573125402_ba1aa5dbab_q.jpg",
                "height_q": "150",
                "width_q": "150",
                "url_m": "https:\/\/farm8.staticflickr.com\/7915\/46573125402_ba1aa5dbab.jpg",
                "height_m": "500",
                "width_m": "500",
                "url_n": "https:\/\/farm8.staticflickr.com\/7915\/46573125402_ba1aa5dbab_n.jpg",
                "height_n": 320,
                "width_n": "320",
                "url_z": "https:\/\/farm8.staticflickr.com\/7915\/46573125402_ba1aa5dbab_z.jpg",
                "height_z": "640",
                "width_z": "640",
                "url_c": "https:\/\/farm8.staticflickr.com\/7915\/46573125402_ba1aa5dbab_c.jpg",
                "height_c": 800,
                "width_c": "800",
                "url_l": "https:\/\/farm8.staticflickr.com\/7915\/46573125402_ba1aa5dbab_b.jpg",
                "height_l": "800",
                "width_l": "800",
                "url_o": "https:\/\/farm8.staticflickr.com\/7915\/46573125402_a91a08857c_o.jpg",
                "height_o": "800",
                "width_o": "800",
                "pathalias": null
            }
        ]
    },
    "stat": "ok"
}