{
    "photos": {
        "page": 2,
        "pages": 20843,
        "perpage": 10,
        "total": "208426",
        "photo": [
            {
                "id": "46625076941",
                "owner": "163073841@N05",
                "secret": "4510087eeb",
                "server": "7808",
                "farm": 8,
                "title": "title4",
                "ispublic": 1,
                "isfriend": 0,
                "isfamily": 0,
                "license": "0",
                "description": {
                    "_content": "desc4"
                },
                "dateupload": "1546751225",
                "lastupdate": "1546751226",
                "datetaken": "2019-01-05 21:07:05",
                "datetakengranularity": 0,
                "datetakenunknown": "1",
                "ownername": "ankervn",
                "iconserver": "0",
                "iconfarm": 0,
                "views": "2",
                "tags": "",
                "machine_tags": "",
                "originalsecret": "6ef29cd9da",
                "originalformat": "jpg",
                "latitude": 0,
                "longitude": 0,
                "accuracy": 0,
                "context": 0,
                "media": "photo",
                "media_status": "ready",
                "url_sq": "https:\/\/farm8.staticflickr.com\/7808\/46625076941_4510087eeb_s.jpg",
                "height_sq": 75,
                "width_sq": 75,
                "url_t": "https:\/\/farm8.staticflickr.com\/7808\/46625076941_4510087eeb_t.jpg",
                "height_t": "100",
                "width_t": "100",
                "url_s": "https:\/\/farm8.staticflickr.com\/7808\/46625076941_4510087eeb_m.jpg",
                "height_s": "240",
                "width_s": "240",
                "url_q": "https:\/\/farm8.staticflickr.com\/7808\/46625076941_4510087eeb_q.jpg",
                "height_q": "150",
                "width_q": "150",
                "url_m": "https:\/\/farm8.staticflickr.com\/7808\/46625076941_4510087eeb.jpg",
                "height_m": "500",
                "width_m": "500",
                "url_n": "https:\/\/farm8.staticflickr.com\/7808\/46625076941_4510087eeb_n.jpg",
                "height_n": 320,
                "width_n": "320",
                "url_z": "https:\/\/farm8.staticflickr.com\/7808\/46625076941_4510087eeb_z.jpg",
                "height_z": "640",
                "width_z": "640",
                "url_l": "https:\/\/farm8.staticflickr.com\/7808\/46625076941_4510087eeb_b.jpg",
                "height_l": "720",
                "width_l": "720",
                "url_o": "https:\/\/farm8.staticflickr.com\/7808\/46625076941_6ef29cd9da_o.jpg",
                "height_o": "720",
                "width_o": "720",
                "pathalias": null
            },
            {
                "id": "45900956424",
                "owner": "163073841@N05",
                "secret": "dc39c644c5",
                "server": "7917",
                "farm": 8,
                "title": "title5",
                "ispublic": 1,
                "isfriend": 0,
                "isfamily": 0,
                "license": "0",
                "description": {
                    "_content": "desc5"
                },
                "dateupload": "1546751206",
                "lastupdate": "1546751207",
                "datetaken": "2019-01-05 21:06:46",
                "datetakengranularity": 0,
                "datetakenunknown": "1",
                "ownername": "ankervn",
                "iconserver": "0",
                "iconfarm": 0,
                "views": "1",
                "tags": "",
                "machine_tags": "",
                "originalsecret": "7d209bef30",
                "originalformat": "jpg",
                "latitude": 0,
                "longitude": 0,
                "accuracy": 0,
                "context": 0,
                "media": "photo",
                "media_status": "ready",
                "url_sq": "https:\/\/farm8.staticflickr.com\/7917\/45900956424_dc39c644c5_s.jpg",
                "height_sq": 75,
                "width_sq": 75,
                "url_t": "https:\/\/farm8.staticflickr.com\/7917\/45900956424_dc39c644c5_t.jpg",
                "height_t": "100",
                "width_t": "100",
                "url_s": "https:\/\/farm8.staticflickr.com\/7917\/45900956424_dc39c644c5_m.jpg",
                "height_s": "240",
                "width_s": "240",
                "url_q": "https:\/\/farm8.staticflickr.com\/7917\/45900956424_dc39c644c5_q.jpg",
                "height_q": "150",
                "width_q": "150",
                "url_m": "https:\/\/farm8.staticflickr.com\/7917\/45900956424_dc39c644c5.jpg",
                "height_m": "500",
                "width_m": "500",
                "url_n": "https:\/\/farm8.staticflickr.com\/7917\/45900956424_dc39c644c5_n.jpg",
                "height_n": 320,
                "width_n": "320",
                "url_z": "https:\/\/farm8.staticflickr.com\/7917\/45900956424_dc39c644c5_z.jpg",
                "height_z": "640",
                "width_z": "640",
                "url_c": "https:\/\/farm8.staticflickr.com\/7917\/45900956424_dc39c644c5_c.jpg",
                "height_c": 800,
                "width_c": "800",
                "url_l": "https:\/\/farm8.staticflickr.com\/7917\/45900956424_dc39c644c5_b.jpg",
                "height_l": "800",
                "width_l": "800",
                "url_o": "https:\/\/farm8.staticflickr.com\/7917\/45900956424_7d209bef30_o.jpg",
                "height_o": "800",
                "width_o": "800",
                "pathalias": null
            },
            {
                "id": "45710677395",
                "owner": "163073841@N05",
                "secret": "845fb8e05b",
                "server": "7865",
                "farm": 8,
                "title": "title6",
                "ispublic": 1,
                "isfriend": 0,
                "isfamily": 0,
                "license": "0",
                "description": {
                    "_content": "desc6"
                },
                "dateupload": "1546751202",
                "lastupdate": "1546751203",
                "datetaken": "2019-01-05 21:06:42",
                "datetakengranularity": 0,
                "datetakenunknown": "1",
                "ownername": "ankervn",
                "iconserver": "0",
                "iconfarm": 0,
                "views": "0",
                "tags": "",
                "machine_tags": "",
                "originalsecret": "a2d5ca8635",
                "originalformat": "jpg",
                "latitude": 0,
                "longitude": 0,
                "accuracy": 0,
                "context": 0,
                "media": "photo",
                "media_status": "ready",
                "url_sq": "https:\/\/farm8.staticflickr.com\/7865\/45710677395_845fb8e05b_s.jpg",
                "height_sq": 75,
                "width_sq": 75,
                "url_t": "https:\/\/farm8.staticflickr.com\/7865\/45710677395_845fb8e05b_t.jpg",
                "height_t": "100",
                "width_t": "100",
                "url_s": "https:\/\/farm8.staticflickr.com\/7865\/45710677395_845fb8e05b_m.jpg",
                "height_s": "240",
                "width_s": "240",
                "url_q": "https:\/\/farm8.staticflickr.com\/7865\/45710677395_845fb8e05b_q.jpg",
                "height_q": "150",
                "width_q": "150",
                "url_m": "https:\/\/farm8.staticflickr.com\/7865\/45710677395_845fb8e05b.jpg",
                "height_m": "500",
                "width_m": "500",
                "url_n": "https:\/\/farm8.staticflickr.com\/7865\/45710677395_845fb8e05b_n.jpg",
                "height_n": 320,
                "width_n": "320",
                "url_z": "https:\/\/farm8.staticflickr.com\/7865\/45710677395_845fb8e05b_z.jpg",
                "height_z": "600",
                "width_z": "600",
                "url_o": "https:\/\/farm8.staticflickr.com\/7865\/45710677395_a2d5ca8635_o.jpg",
                "height_o": "600",
                "width_o": "600",
                "pathalias": null
            }
        ]
    },
    "stat": "ok"
}