{
    "photos": {
        "page": 3,
        "pages": 21276,
        "perpage": 10,
        "total": "212751",
        "photo": [
            {
                "id": "45900540604",
                "owner": "167215058@N03",
                "secret": "cb3aa57273",
                "server": "7853",
                "farm": 8,
                "title": "title7",
                "ispublic": 1,
                "isfriend": 0,
                "isfamily": 0,
                "license": "0",
                "description": {
                    "_content": "desc7"
                },
                "dateupload": "1546748544",
                "lastupdate": "1546748544",
                "datetaken": "2019-01-05 20:22:24",
                "datetakengranularity": 0,
                "datetakenunknown": "1",
                "ownername": "nhacloi",
                "iconserver": "0",
                "iconfarm": 0,
                "views": "3",
                "tags": "",
                "machine_tags": "",
                "originalsecret": "73810d9888",
                "originalformat": "jpg",
                "latitude": 0,
                "longitude": 0,
                "accuracy": 0,
                "context": 0,
                "media": "photo",
                "media_status": "ready",
                "url_sq": "https:\/\/farm8.staticflickr.com\/7853\/45900540604_cb3aa57273_s.jpg",
                "height_sq": 75,
                "width_sq": 75,
                "url_t": "https:\/\/farm8.staticflickr.com\/7853\/45900540604_cb3aa57273_t.jpg",
                "height_t": "100",
                "width_t": "100",
                "url_s": "https:\/\/farm8.staticflickr.com\/7853\/45900540604_cb3aa57273_m.jpg",
                "height_s": "240",
                "width_s": "240",
                "url_q": "https:\/\/farm8.staticflickr.com\/7853\/45900540604_cb3aa57273_q.jpg",
                "height_q": "150",
                "width_q": "150",
                "url_m": "https:\/\/farm8.staticflickr.com\/7853\/45900540604_cb3aa57273.jpg",
                "height_m": "500",
                "width_m": "500",
                "url_n": "https:\/\/farm8.staticflickr.com\/7853\/45900540604_cb3aa57273_n.jpg",
                "height_n": 320,
                "width_n": "320",
                "url_z": "https:\/\/farm8.staticflickr.com\/7853\/45900540604_cb3aa57273_z.jpg",
                "height_z": "640",
                "width_z": "640",
                "url_c": "https:\/\/farm8.staticflickr.com\/7853\/45900540604_cb3aa57273_c.jpg",
                "height_c": 800,
                "width_c": "800",
                "url_l": "https:\/\/farm8.staticflickr.com\/7853\/45900540604_cb3aa57273_b.jpg",
                "height_l": "800",
                "width_l": "800",
                "url_o": "https:\/\/farm8.staticflickr.com\/7853\/45900540604_73810d9888_o.jpg",
                "height_o": "800",
                "width_o": "800",
                "pathalias": null
            },
            {
                "id": "45900540624",
                "owner": "163073841@N05",
                "secret": "e75b9fb10e",
                "server": "7926",
                "farm": 8,
                "title": "title8",
                "ispublic": 1,
                "isfriend": 0,
                "isfamily": 0,
                "license": "0",
                "description": {
                    "_content": "desc8"
                },
                "dateupload": "1546748544",
                "lastupdate": "1546748544",
                "datetaken": "2019-01-05 20:22:24",
                "datetakengranularity": 0,
                "datetakenunknown": "1",
                "ownername": "ankervn",
                "iconserver": "0",
                "iconfarm": 0,
                "views": "3",
                "tags": "",
                "machine_tags": "",
                "originalsecret": "da313c19af",
                "originalformat": "jpg",
                "latitude": 0,
                "longitude": 0,
                "accuracy": 0,
                "context": 0,
                "media": "photo",
                "media_status": "ready",
                "url_sq": "https:\/\/farm8.staticflickr.com\/7926\/45900540624_e75b9fb10e_s.jpg",
                "height_sq": 75,
                "width_sq": 75,
                "url_t": "https:\/\/farm8.staticflickr.com\/7926\/45900540624_e75b9fb10e_t.jpg",
                "height_t": "100",
                "width_t": "100",
                "url_s": "https:\/\/farm8.staticflickr.com\/7926\/45900540624_e75b9fb10e_m.jpg",
                "height_s": "240",
                "width_s": "240",
                "url_q": "https:\/\/farm8.staticflickr.com\/7926\/45900540624_e75b9fb10e_q.jpg",
                "height_q": "150",
                "width_q": "150",
                "url_m": "https:\/\/farm8.staticflickr.com\/7926\/45900540624_e75b9fb10e.jpg",
                "height_m": "500",
                "width_m": "500",
                "url_n": "https:\/\/farm8.staticflickr.com\/7926\/45900540624_e75b9fb10e_n.jpg",
                "height_n": 320,
                "width_n": "320",
                "url_z": "https:\/\/farm8.staticflickr.com\/7926\/45900540624_e75b9fb10e_z.jpg",
                "height_z": "640",
                "width_z": "640",
                "url_l": "https:\/\/farm8.staticflickr.com\/7926\/45900540624_e75b9fb10e_b.jpg",
                "height_l": "720",
                "width_l": "720",
                "url_o": "https:\/\/farm8.staticflickr.com\/7926\/45900540624_da313c19af_o.jpg",
                "height_o": "720",
                "width_o": "720",
                "pathalias": null
            },
            {
                "id": "39659897083",
                "owner": "163073841@N05",
                "secret": "84cbf79774",
                "server": "4854",
                "farm": 5,
                "title": "title9",
                "ispublic": 1,
                "isfriend": 0,
                "isfamily": 0,
                "license": "0",
                "description": {
                    "_content": "desc9"
                },
                "dateupload": "1546748491",
                "lastupdate": "1546748492",
                "datetaken": "2019-01-05 20:21:31",
                "datetakengranularity": 0,
                "datetakenunknown": "1",
                "ownername": "ankervn",
                "iconserver": "0",
                "iconfarm": 0,
                "views": "0",
                "tags": "",
                "machine_tags": "",
                "originalsecret": "1ddfc4eb95",
                "originalformat": "jpg",
                "latitude": 0,
                "longitude": 0,
                "accuracy": 0,
                "context": 0,
                "media": "photo",
                "media_status": "ready",
                "url_sq": "https:\/\/farm5.staticflickr.com\/4854\/39659897083_84cbf79774_s.jpg",
                "height_sq": 75,
                "width_sq": 75,
                "url_t": "https:\/\/farm5.staticflickr.com\/4854\/39659897083_84cbf79774_t.jpg",
                "height_t": "65",
                "width_t": "100",
                "url_s": "https:\/\/farm5.staticflickr.com\/4854\/39659897083_84cbf79774_m.jpg",
                "height_s": "155",
                "width_s": "240",
                "url_q": "https:\/\/farm5.staticflickr.com\/4854\/39659897083_84cbf79774_q.jpg",
                "height_q": "150",
                "width_q": "150",
                "url_m": "https:\/\/farm5.staticflickr.com\/4854\/39659897083_84cbf79774.jpg",
                "height_m": "323",
                "width_m": "500",
                "url_n": "https:\/\/farm5.staticflickr.com\/4854\/39659897083_84cbf79774_n.jpg",
                "height_n": 207,
                "width_n": "320",
                "url_z": "https:\/\/farm5.staticflickr.com\/4854\/39659897083_84cbf79774_z.jpg",
                "height_z": "413",
                "width_z": "640",
                "url_c": "https:\/\/farm5.staticflickr.com\/4854\/39659897083_84cbf79774_c.jpg",
                "height_c": 516,
                "width_c": "800",
                "url_l": "https:\/\/farm5.staticflickr.com\/4854\/39659897083_84cbf79774_b.jpg",
                "height_l": "661",
                "width_l": "1024",
                "url_o": "https:\/\/farm5.staticflickr.com\/4854\/39659897083_1ddfc4eb95_o.jpg",
                "height_o": "826",
                "width_o": "1280",
                "pathalias": null
            }
        ]
    },
    "stat": "ok"
}